$ ./run testserver.helloworldopen.com 8091 merefool
Connecting to testserver.helloworldopen.com:8091 as merefool/bctZQwonBEeEGg
{"msgType":"join","data":{"name":"merefool","key":"bctZQwonBEeEGg","color":"red"
}}
Joined
{"msgType":"yourCar","data":{"name":"merefool","color":"red"},"gameId":"6a5fde28
-1ece-418b-bf9c-495d9de5d7b4"}
{"msgType":"gameInit","data":{"race":{"track":{"id":"keimola","name":"Keimola","
pieces":[{"length":100.0},{"length":100.0},{"length":100.0},{"length":100.0,"swi
tch":true},{"radius":100,"angle":45.0},{"radius":100,"angle":45.0},{"radius":100
,"angle":45.0},{"radius":100,"angle":45.0},{"radius":200,"angle":22.5,"switch":t
rue},{"length":100.0},{"length":100.0},{"radius":200,"angle":-22.5},{"length":10
0.0},{"length":100.0,"switch":true},{"radius":100,"angle":-45.0},{"radius":100,"
angle":-45.0},{"radius":100,"angle":-45.0},{"radius":100,"angle":-45.0},{"length
":100.0,"switch":true},{"radius":100,"angle":45.0},{"radius":100,"angle":45.0},{
"radius":100,"angle":45.0},{"radius":100,"angle":45.0},{"radius":200,"angle":22.
5},{"radius":200,"angle":-22.5},{"length":100.0,"switch":true},{"radius":100,"an
gle":45.0},{"radius":100,"angle":45.0},{"length":62.0},{"radius":100,"angle":-45
.0,"switch":true},{"radius":100,"angle":-45.0},{"radius":100,"angle":45.0},{"rad
ius":100,"angle":45.0},{"radius":100,"angle":45.0},{"radius":100,"angle":45.0},{
"length":100.0,"switch":true},{"length":100.0},{"length":100.0},{"length":100.0}
,{"length":90.0}],"lanes":[{"distanceFromCenter":-10,"index":0},{"distanceFromCe
nter":10,"index":1}],"startingPoint":{"position":{"x":-300.0,"y":-44.0},"angle":
90.0}},"cars":[{"id":{"name":"merefool","color":"red"},"dimensions":{"length":40
.0,"width":20.0,"guideFlagPosition":10.0}}],"raceSession":{"laps":3,"maxLapTimeM
s":60000,"quickRace":true}}},"gameId":"6a5fde28-1ece-418b-bf9c-495d9de5d7b4"}
Race init
{"msgType":"carPositions","data":[{"id":{"name":"merefool","color":"red"},"angle
":0.0,"piecePosition":{"pieceIndex":0,"inPieceDistance":0.0,"lane":{"startLaneIn
dex":0,"endLaneIndex":0},"lap":0}}],"gameId":"6a5fde28-1ece-418b-bf9c-495d9de5d7
b4"}
{"msgType":"gameStart","data":null,"gameId":"6a5fde28-1ece-418b-bf9c-495d9de5d7b
4","gameTick":0}
Race starts
{"msgType":"carPositions","data":[{"id":{"name":"merefool","color":"red"},"angle
":0.0,"piecePosition":{"pieceIndex":0,"inPieceDistance":0.0,"lane":{"startLaneIn
dex":0,"endLaneIndex":0},"lap":0}}],"gameId":"6a5fde28-1ece-418b-bf9c-495d9de5d7
b4","gameTick":1}
{"msgType":"carPositions","data":[{"id":{"name":"merefool","color":"red"},"angle
":0.0,"piecePosition":{"pieceIndex":0,"inPieceDistance":0.0,"lane":{"startLaneIn
dex":0,"endLaneIndex":0},"lap":0}}],"gameId":"6a5fde28-1ece-418b-bf9c-495d9de5d7
b4","gameTick":2}
{"msgType":"carPositions","data":[{"id":{"name":"merefool","color":"red"},"angle
":0.0,"piecePosition":{"pieceIndex":0,"inPieceDistance":0.1,"lane":{"startLaneIn
dex":0,"endLaneIndex":0},"lap":0}}],"gameId":"6a5fde28-1ece-418b-bf9c-495d9de5d7
b4","gameTick":3}
{"msgType":"carPositions","data":[{"id":{"name":"merefool","color":"red"},"angle
":0.0,"piecePosition":{"pieceIndex":0,"inPieceDistance":0.29800000000000004,"lan
e":{"startLaneIndex":0,"endLaneIndex":0},"lap":0}}],"gameId":"6a5fde28-1ece-418b
-bf9c-495d9de5d7b4","gameTick":4}
{"msgType":"carPositions","data":[{"id":{"name":"merefool","color":"red"},"angle
":0.0,"piecePosition":{"pieceIndex":0,"inPieceDistance":0.5920400000000001,"lane
":{"startLaneIndex":0,"endLaneIndex":0},"lap":0}}],"gameId":"6a5fde28-1ece-418b-
bf9c-495d9de5d7b4","gameTick":5}
{"msgType":"carPositions","data":[{"id":{"name":"merefool","color":"red"},"angle
":0.0,"piecePosition":{"pieceIndex":0,"inPieceDistance":0.9801992000000002,"lane
":{"startLaneIndex":0,"endLaneIndex":0},"lap":0}}],"gameId":"6a5fde28-1ece-418b-
bf9c-495d9de5d7b4","gameTick":6}
{"msgType":"carPositions","data":[{"id":{"name":"merefool","color":"red"},"angle
":0.0,"piecePosition":{"pieceIndex":0,"inPieceDistance":1.4605952160000002,"lane
":{"startLaneIndex":0,"endLaneIndex":0},"lap":0}}],"gameId":"6a5fde28-1ece-418b-
bf9c-495d9de5d7b4","gameTick":7}
{"msgType":"carPositions","data":[{"id":{"name":"merefool","color":"red"},"angle
":0.0,"piecePosition":{"pieceIndex":0,"inPieceDistance":2.03138331168,"lane":{"s
tartLaneIndex":0,"endLaneIndex":0},"lap":0}}],"gameId":"6a5fde28-1ece-418b-bf9c-
495d9de5d7b4","gameTick":8}
{"msgType":"carPositions","data":[{"id":{"name":"merefool","color":"red"},"angle
":0.0,"piecePosition":{"pieceIndex":0,"inPieceDistance":2.6907556454464,"lane":{
"startLaneIndex":0,"endLaneIndex":0},"lap":0}}],"gameId":"6a5fde28-1ece-418b-bf9
c-495d9de5d7b4","gameTick":9}
{"msgType":"carPositions","data":[{"id":{"name":"merefool","color":"red"},"angle
":0.0,"piecePosition":{"pieceIndex":0,"inPieceDistance":3.4369405325374722,"lane
":{"startLaneIndex":0,"endLaneIndex":0},"lap":0}}],"gameId":"6a5fde28-1ece-418b-
bf9c-495d9de5d7b4","gameTick":10}
{"msgType":"carPositions","data":[{"id":{"name":"merefool","color":"red"},"angle
":0.0,"piecePosition":{"pieceIndex":0,"inPieceDistance":4.268201721886722,"lane"
:{"startLaneIndex":0,"endLaneIndex":0},"lap":0}}],"gameId":"6a5fde28-1ece-418b-b
f9c-495d9de5d7b4","gameTick":11}
{"msgType":"carPositions","data":[{"id":{"name":"merefool","color":"red"},"angle
":0.0,"piecePosition":{"pieceIndex":0,"inPieceDistance":5.182837687448988,"lane"
:{"startLaneIndex":0,"endLaneIndex":0},"lap":0}}],"gameId":"6a5fde28-1ece-418b-b
f9c-495d9de5d7b4","gameTick":12}
{"msgType":"carPositions","data":[{"id":{"name":"merefool","color":"red"},"angle
":0.0,"piecePosition":{"pieceIndex":0,"inPieceDistance":6.179180933700008,"lane"
:{"startLaneIndex":0,"endLaneIndex":0},"lap":0}}],"gameId":"6a5fde28-1ece-418b-b
f9c-495d9de5d7b4","gameTick":13}
{"msgType":"carPositions","data":[{"id":{"name":"merefool","color":"red"},"angle
":0.0,"piecePosition":{"pieceIndex":0,"inPieceDistance":7.255597315026007,"lane"
:{"startLaneIndex":0,"endLaneIndex":0},"lap":0}}],"gameId":"6a5fde28-1ece-418b-b
f9c-495d9de5d7b4","gameTick":14}
{"msgType":"carPositions","data":[{"id":{"name":"merefool","color":"red"},"angle
":0.0,"piecePosition":{"pieceIndex":0,"inPieceDistance":8.410485368725487,"lane"
:{"startLaneIndex":0,"endLaneIndex":0},"lap":0}}],"gameId":"6a5fde28-1ece-418b-b
f9c-495d9de5d7b4","gameTick":15}
{"msgType":"carPositions","data":[{"id":{"name":"merefool","color":"red"},"angle
":0.0,"piecePosition":{"pieceIndex":0,"inPieceDistance":9.642275661350977,"lane"
:{"startLaneIndex":0,"endLaneIndex":0},"lap":0}}],"gameId":"6a5fde28-1ece-418b-b
f9c-495d9de5d7b4","gameTick":16}
{"msgType":"carPositions","data":[{"id":{"name":"merefool","color":"red"},"angle
":0.0,"piecePosition":{"pieceIndex":0,"inPieceDistance":10.949430148123957,"lane
":{"startLaneIndex":0,"endLaneIndex":0},"lap":0}}],"gameId":"6a5fde28-1ece-418b-
bf9c-495d9de5d7b4","gameTick":17}
{"msgType":"carPositions","data":[{"id":{"name":"merefool","color":"red"},"angle
":0.0,"piecePosition":{"pieceIndex":0,"inPieceDistance":12.330441545161477,"lane
":{"startLaneIndex":0,"endLaneIndex":0},"lap":0}}],"gameId":"6a5fde28-1ece-418b-
bf9c-495d9de5d7b4","gameTick":18}
{"msgType":"carPositions","data":[{"id":{"name":"merefool","color":"red"},"angle
":0.0,"piecePosition":{"pieceIndex":0,"inPieceDistance":13.783832714258248,"lane
":{"startLaneIndex":0,"endLaneIndex":0},"lap":0}}],"gameId":"6a5fde28-1ece-418b-
bf9c-495d9de5d7b4","gameTick":19}
{"msgType":"carPositions","data":[{"id":{"name":"merefool","color":"red"},"angle
":0.0,"piecePosition":{"pieceIndex":0,"inPieceDistance":15.308156059973083,"lane
":{"startLaneIndex":0,"endLaneIndex":0},"lap":0}}],"gameId":"6a5fde28-1ece-418b-
bf9c-495d9de5d7b4","gameTick":20}
{"msgType":"carPositions","data":[{"id":{"name":"merefool","color":"red"},"angle
":0.0,"piecePosition":{"pieceIndex":0,"inPieceDistance":16.90199293877362,"lane"
:{"startLaneIndex":0,"endLaneIndex":0},"lap":0}}],"gameId":"6a5fde28-1ece-418b-b
f9c-495d9de5d7b4","gameTick":21}
{"msgType":"carPositions","data":[{"id":{"name":"merefool","color":"red"},"angle
":0.0,"piecePosition":{"pieceIndex":0,"inPieceDistance":18.563953079998146,"lane
":{"startLaneIndex":0,"endLaneIndex":0},"lap":0}}],"gameId":"6a5fde28-1ece-418b-
bf9c-495d9de5d7b4","gameTick":22}
{"msgType":"carPositions","data":[{"id":{"name":"merefool","color":"red"},"angle
":0.0,"piecePosition":{"pieceIndex":0,"inPieceDistance":20.292674018398184,"lane
":{"startLaneIndex":0,"endLaneIndex":0},"lap":0}}],"gameId":"6a5fde28-1ece-418b-
bf9c-495d9de5d7b4","gameTick":23}
{"msgType":"carPositions","data":[{"id":{"name":"merefool","color":"red"},"angle
":0.0,"piecePosition":{"pieceIndex":0,"inPieceDistance":22.08682053803022,"lane"
:{"startLaneIndex":0,"endLaneIndex":0},"lap":0}}],"gameId":"6a5fde28-1ece-418b-b
f9c-495d9de5d7b4","gameTick":24}
{"msgType":"carPositions","data":[{"id":{"name":"merefool","color":"red"},"angle
":0.0,"piecePosition":{"pieceIndex":0,"inPieceDistance":23.945084127269617,"lane
":{"startLaneIndex":0,"endLaneIndex":0},"lap":0}}],"gameId":"6a5fde28-1ece-418b-
bf9c-495d9de5d7b4","gameTick":25}
{"msgType":"carPositions","data":[{"id":{"name":"merefool","color":"red"},"angle
":0.0,"piecePosition":{"pieceIndex":0,"inPieceDistance":25.866182444724224,"lane
":{"startLaneIndex":0,"endLaneIndex":0},"lap":0}}],"gameId":"6a5fde28-1ece-418b-
bf9c-495d9de5d7b4","gameTick":26}
{"msgType":"carPositions","data":[{"id":{"name":"merefool","color":"red"},"angle
":0.0,"piecePosition":{"pieceIndex":0,"inPieceDistance":27.848858795829738,"lane
":{"startLaneIndex":0,"endLaneIndex":0},"lap":0}}],"gameId":"6a5fde28-1ece-418b-
bf9c-495d9de5d7b4","gameTick":27}